{
    "cardName": "Ace of Swords",
    "keyWord": "Achievement, Advantage, Advantage, Mental focus, Victory",
    "astrological": "Libra, Aquarius, Gemini",
    "imageName":"aceofswords",
    "detail":"The Ace of Swords is, like all of the Aces, the purest embodiment of its suit. In relation to your personality or your actions it implies a strong element of focus, determination, and an intellectual capacity. It may suggest change through warring forces, possibly internal; conflicts of not necessarily overt reasoning regarding inner consciousness, keep energetic to triumph.",
 "topic":
   [
    {
    "title":"Career",
    "name":"career",
    "content":"In the context of work, the Ace can mean that you soon will try a different tactic or may even choose to leave the job that you're currently in. If you're committed to staying where you are, you may have some good ideas for new policies or procedures that could make everyone's life easier at work and improve the bottom line/final product. Don't hesitate to give voice to those. Another old adage: \"It's amazing what can be done if you don't care who gets the credit.\" You will ultimately get the credit for anything good that you bring to the table. The credit doesn't have to be instantaneous."
    },
{
	"title":"Love",
	"name":"love",
	"content":"In terms of love, the Ace can mean that you are ready to start something new, and if you're currently in a committed relationship, it can indicate that there's something about this relationship that you will choose to put a stop to. Don't hesitate to speak your mind. If something in the relationship is hurtful or bad for you, and you lose your partner because you say so - you haven't really lost, you are being guided toward a relationship that is better for you. Tell the truth."
},
{
	"title":"Health",
	"name":"health",
	 "content":"In terms of health, you may finally find it within yourself to stop some bad habits that you know are bad for you. (This can also indicate the converse - finally starting something that is good for you!) Expect some frayed nerves as you're making this transition. Take good care of yourself, only then will you truly be able to care adequately for others. Physical exercise is particularly important now, but don't overdo it."
}
   ]
}
