{
    "cardName": "Knight of Cups",
    "keyWord": "Arrival, Creative, Invitation, New opportunities, Proposal",
    "astrological": "Aquarius & Pisces",
    "imageName":"knightofcups",
    "detail":"The Knight of Cups encourages you to remember that victory is not just an exercise in strength of arms, but can be achieved through cleverness and a savvy mind. He can also be given to flights of wild fancy, though, so you may also interpret him as a warning to maintain your focus. New initiatives in your life are likely on their way, and you must remember to seek novel paths to accomplish goals, but also not lose sight of where you are going.",
    "topic":
    [
     {
     "title":"Career",
     "name":"career",
     "content":"Work projects are likely to move ahead in a positive way, sooner than you're expecting, when this card shows in a reading. You should be proud of your accomplishments and your contributions."
     },
     {
     "title":"Love",
     "name":"love",
     "content":"This is a very, very positive card to get when you are asking about love. If you are single, this card often indicates that someone is about to \"sweep you off your feet.\" If you are in a relationship, the Knight can indicate final commitments/marriage. At the least, in the context of love, this card means positive messages, things that you would like to hear. Be open to exploration of your feelings."
     },
     {
     "title":"Health",
     "name":"health",
     "content":"If you are waiting on test results regarding your health and you get this card, relax and know that the news will be good. In general with your health, the Knight means you will soon be feeling better/even healthier!"
     }
     ]
}

