   {
    "cardName": "Page of Swords",
    "keyWord": "Aggressive, Challenging, Change, Intelligent, Vigilant",
    "astrological": "No astrological attribution",
    "imageName":"pageofswords",
    "detail":"Your personality may trend towards the stubborn and opinionated, if the Page represents you in the spread, but it is also indicative of strong analytical skills and an energetic nature. You have a predilection towards identifying the core of issues and accurately assessing your own stance on them. This will allow you to become an excellent negotiator. If the card refer to a situation, instead, prepare yourself to make many important decisions quickly. Trust in your reason and your judgment to navigate these difficulties.",
    "topic":
    [
     {
     "title":"Career",
     "name":"career",
     "content":"In relation to work questions, the Page indicates that you may soon be dealing with some conflict at work if you are currently employed. If you're looking for work, you may need to behave with a great deal of humility in interviews to land the position you've been hoping for (but don't put yourself down.) Be cautious with contracts."
     },
     {
     "title":"Love",
     "name":"love",
     "content":"In love questions, the Page of Swords points to mild conflict. Know when to push and when to back off, many fights and discussions are not actually worth having (as long as your partner is treating you with respect.) Allow your partner to have his or her space. This is crucial for happiness. If you're unattached, get out and mingle. Love doesn't drop out of the sky by itself."
     },
     {
     "title":"Health",
     "name":"health",
     "content":"When the Page comes up in relation to health matters, chances are good that you have been overdoing it, working too hard, behaving too intensely. Give yourself and the others around you a break, your frayed nerves demand it. Silence and rest works wonders. If you've started a new workout regime, don't push yourself too hard."
     }
     ]
}
