{
    "cardName": "Seven of Cups",
    "keyWord": "Confusion, Dreams and ambitions, Speculating, Decision, Temptation",
    "astrological": "Scorpio",
    "imageName":"sevenofcups",
    "detail":"This card speaks strongly to your inner self. It is trying to tell you something about your unconscious or the realms of your imagination. Your hopes, dreams, and unrealized aspirations are all fair game to the VII of Cups. It speaks of a deep confusion, or a lack of understanding of your true motivations by your conscious mind. It is time to look carefully at your own motivations and reexamine your goals, but it is also a risky time to act upon your conclusions.",
    "topic":
    [
     {
     "title":"Career",
     "name":"career",
     "content":"If a business or work deal seems too good to be true, it probably IS too good to be true. Watch where you put your money and who you put your trust in. If you work (or want to work) in a creative field of some kind, this is an excellent omen for making good progress, however if your job or field is more precise, mathematical, and business like, this energy carries the warning that you may be spending too much time with your head in the clouds and need to refocus."
     },
     {
     "title":"Love",
     "name":"love",
     "content":"You may have several romantic choices at hand. Be clear and specific about what you want in a relationship, evaluate your choices thoughtfully, be honest and as clear as you can be with all people involved (including yourself) then move ahead. Beware falling in love with the \"heady rush\" that happens only at the beginning of a relationship. In no relationship does that rush last forever. Good relationships, even soul mate relationships, will settle into a less \"rush-based\" comfort zone at some point. That does not mean that you have to stay in a rut."
     },
     {
     "title":"Health",
     "name":"health",
     "content":"Any symptoms that you are experiencing may be at least partially due to a lack of being grounded, but of course consult your doctor to be sure. Keep a journal of your symptoms and also of your thoughts. Physical exercise will help you stay grounded."
     }
     ]
}




