{
    "cardName": "The Hermit",
    "keyWord": "Detachment, Guidance, Solitude, Sour-searching and introspection, Thinking and reflection",
    "astrological": "Virgo",
    "imageName":"thehermit",
    "detail":"There are times in every life, when one must step back and make a careful examination of their situations and decisions. Finding the Hermit in your spread suggests this is just such a time for you. You are in need of a period of inner reflection, away from the current demands of your position. This retreat can be physical, or a search within. Only a deep and honest introspection will lead to a solution, however.",
    "topic":
    [
     {
     "title":"Career",
     "name":"career",
     "content":"You are nearing the point where work success and recognition are well within your grasp. Do your best to be organized and productive. This will pay off for you in ways that aren't clear yet. Do the \"right thing\" even if nobody is watching. You are always watching what you are doing."
     },
     {
     "title":"Love",
     "name":"love",
     "content":"It's possible that a romance from your past will be re-kindled. Is that really what you want? It seems that romantic relationships are not currently a priority for you right now. If your head says that you want nothing more than a romantic relationship; look at your behavior. Does it align with that analysis? In a committed relationship, you might have been moving in different directions for a while now. Make sure to make the time and effort to stay connected in order to keep the spark alive."
     },
     {
     "title":"Health",
     "name":"health",
     "content":"Ritual of any sort will be helpful to you health-wise. (this could even be something like reading a book for an hour every Saturday afternoon). Any health problems could be drawing your attention to a problem that is not in your body so much as in your life; for example, a bad back could indicate that you are \"carrying too much\" metaphorically speaking. Take care of yourself."
     }
     ]
}
